…
+                ftc_num_c = ifelse(row_number() > 1 & ftc==1 & lag(ftc,1)==1 & job_change == 2, yes = 0, no = ftc_num),
+                ftc_num_sum_c = sum(ftc_num_c, na.rm = TRUE)
+         ) %>%
+         ungroup() %>%
+         arrange(panel, country, pid, year)
> 
> with(df_eu_silc,table(ftc_num_sum,ftc_num_sum_c, useNA = "ifany"))
           ftc_num_sum_c
ftc_num_sum       0       1       2
          0 1612436       0       0
          1       0  174984       0
          2       0  105926   21120
> 
> select(df_eu_silc,country,panel,pid,year,ftc,job_change,ftc_num,ftc_num_c,ftc_num_sum,ftc_num_sum_c) %>% filter(ftc_num_sum_c != ftc_num_sum)
# A tibble: 105,926 x 10
   country panel       pid  year   ftc job_change ftc_num ftc_num_c ftc_num_sum
   <fct>   <dbl>     <dbl> <dbl> <dbl>      <dbl>   <dbl>     <dbl>       <dbl>
 1 AT       2008  93610002  2006     1          1       1         1           2
 2 AT       2008  93610002  2007     1          2       1         0           2
 3 AT       2008  94210001  2006     1          1       1         1           2
 4 AT       2008  94210001  2007     1          2       1         0           2
 5 AT       2008  97870001  2005     1          2       1         1           2
 6 AT       2008  97870001  2006     1          2       1         0           2
 7 AT       2008 100930001  2005     1          2       1         1           2
 8 AT       2008 100930001  2006     1          2       1         0           2
 9 AT       2008 100930002  2005     1          2       1         1           2
10 AT       2008 100930002  2006     1          2       1         0           2
# … with 105,916 more rows, and 1 more variable: ftc_num_sum_c <dbl>
…
+         mutate(start = ifelse(ftc != lag(ftc) & row_number() > 1, yes = 1,
+                               ifelse(ftc == lag(ftc) & job_change == 1 & row_number() > 1, yes = 1, no = 0)),
+                spell = cumsum(start)) %>%
+         group_by(panel, country, pid, spell) %>%
+         mutate(ftc_dur = ifelse(ftc == 1, yes = cumsum(ftc), no = 0)) %>%
+         ungroup()
> 
> with(df_eu_silc,table(ftc_num_sum_c,ftc_dur))
             ftc_dur
ftc_num_sum_c       0       1       2
            0 1612436       0       0
            1   87492  141596   51822
            2       0   21120       0
> select(df_eu_silc,country,panel,pid,year,ftc,spell,job_change,ftc_dur,ftc_num_sum_c) %>% filter(ftc_num_sum_c==1&ftc_dur==2)
# A tibble: 51,822 x 9
   country panel       pid  year   ftc spell job_change ftc_dur ftc_num_sum_c
   <fct>   <dbl>     <dbl> <dbl> <dbl> <dbl>      <dbl>   <dbl>         <dbl>
 1 AT       2008  93610002  2007     1     0          2       2             1
 2 AT       2008  94210001  2007     1     0          2       2             1
 3 AT       2008  97870001  2006     1     0          2       2             1
 4 AT       2008 100930001  2006     1     0          2       2             1
 5 AT       2008 100930002  2006     1     0          2       2             1
 6 AT       2008 121460001  2006     1     0          2       2             1
 7 AT       2008 122700001  2006     1     0          2       2             1
 8 AT       2008 127400001  2007     1     0          2       2             1
 9 AT       2008 130840001  2007     1     0          2       2             1
10 AT       2008 137310002  2008     1     0          2       2             1
# … with 51,812 more rows
…
